{
    "code": 1000,
    "message": "成功",
    "data": [
      {
        "orgId": "13000332",
        "orgName": "石家庄",
        "userId": "00158",
        "userName": "mininglamp",
        "password": "31FC2F56302EDC6EF851404847F2DF1D",
        "userIdno": "150404199040053236",
        "departmentId": "20182312",
        "departmentName": "邮储项目组",
        "postId": "04",
        "postName": "数据开发",
        "delFlag": "0",
        "ctime": "2018-5-17 19:36:07"
      }
    ]
  }